…
Uh oh! `wo_no` is not available as a filterable field (yet). You can ask
your Megamation representative to add it.

#### Available Filters

`mm_get_col_info()` allows you to see which of your fields you can
currently filter by.

``` r
mm_get_col_info("workorder")
#> # A tibble: 39 × 4
#>    field           filter_enabled description               type          
#>    <chr>           <lgl>          <chr>                     <chr>         
#>  1 type            TRUE           Type                      VARCHAR(65531)
#>  2 status          TRUE           Status                    VARCHAR(65531)
#>  3 date            TRUE           Date - [Month][Day][Year] DATE          
#>  4 submitted_by    TRUE           Submitted By              VARCHAR(65531)
#>  5 priority        TRUE           Priority                  VARCHAR(65531)
#>  6 building_id     TRUE           Building                  VARCHAR(65531)
#>  7 eqp_no          TRUE           Equipment#                VARCHAR(65531)
#>  8 assign_to       TRUE           Assign To                 VARCHAR(65531)
#>  9 issue_to        TRUE           Issue To                  VARCHAR(65531)
#> 10 contractor_name TRUE           Contractor Name           VARCHAR(255)  
#> # ℹ 29 more rows
```
…
